[main] 15:26:45,013 DEBUG [com.qmetry.qaf.automation.testng.pro.QAFAnnotationTransformer2] QAFTestNGListener registered!...
[main] 15:26:45,018 DEBUG [com.qmetry.qaf.automation.testng.pro.QAFInvokedMethodListener2] QAFTestNGListener registered!...
[main] 15:26:45,018 DEBUG [com.qmetry.qaf.automation.testng.pro.QAFMethodInterceptor] QAFTestNGListener registered!...
[main] 15:26:45,018 DEBUG [com.qmetry.qaf.automation.testng.pro.QAFResultListener] QAFTestNGListener registered!...
[main] 15:26:45,018 DEBUG [com.qmetry.qaf.automation.testng.pro.QAFSuiteListener] QAFTestNGListener registered!...
[main] 15:26:45,151 INFO  [com.qmetry.qaf.automation.core.ConfigurationManager] ISFW build info: {qaf-Type=core, qaf-Revision=12-RC3, qaf-Version=2.1, qaf-Build-Time=06-Aug-2017 11:49:43}
[main] 15:26:45,162 INFO  [com.qmetry.qaf.automation.core.ConfigurationManager] Resource dir: D:\QASWorkspace\Perfect0\resources. Found property files to load: 5
[main] 15:26:45,179 DEBUG [com.qmetry.qaf.automation.util.PropertyUtil] clear system property ignored:file.encoding.pkg
[main] 15:26:45,180 DEBUG [com.qmetry.qaf.automation.util.PropertyUtil] clear system property ignored:file.encoding
[main] 15:26:45,180 DEBUG [com.qmetry.qaf.automation.util.PropertyUtil] clear system property ignored:file.separator
[main] 15:26:45,180 DEBUG [com.qmetry.qaf.automation.util.PropertyUtil] clear system property ignored:user.country
[main] 15:26:45,180 DEBUG [com.qmetry.qaf.automation.util.PropertyUtil] clear system property ignored:user.script
[main] 15:26:45,180 DEBUG [com.qmetry.qaf.automation.util.PropertyUtil] clear system property ignored:user.dir
[main] 15:26:45,180 DEBUG [com.qmetry.qaf.automation.util.PropertyUtil] clear system property ignored:user.variant
[main] 15:26:45,180 DEBUG [com.qmetry.qaf.automation.util.PropertyUtil] clear system property ignored:user.home
[main] 15:26:45,181 DEBUG [com.qmetry.qaf.automation.util.PropertyUtil] clear system property ignored:user.timezone
[main] 15:26:45,181 DEBUG [com.qmetry.qaf.automation.util.PropertyUtil] clear system property ignored:user.name
[main] 15:26:45,181 DEBUG [com.qmetry.qaf.automation.util.PropertyUtil] clear system property ignored:user.language
[main] 15:26:45,181 DEBUG [com.qmetry.qaf.automation.util.PropertyUtil] clear system property ignored:selenium.screenshots.relative.path
[main] 15:26:45,181 DEBUG [com.qmetry.qaf.automation.util.PropertyUtil] clear system property ignored:selenium.screenshots.dir
[main] 15:26:45,181 DEBUG [com.qmetry.qaf.automation.util.PropertyUtil] clear system property ignored:os.arch
[main] 15:26:45,181 DEBUG [com.qmetry.qaf.automation.util.PropertyUtil] clear system property ignored:os.name
[main] 15:26:45,181 DEBUG [com.qmetry.qaf.automation.util.PropertyUtil] clear system property ignored:os.version
[main] 15:26:45,181 DEBUG [com.qmetry.qaf.automation.util.PropertyUtil] clear system property ignored:line.separator
[main] 15:26:45,181 DEBUG [com.qmetry.qaf.automation.util.PropertyUtil] clear system property ignored:log4j.configuration
[main] 15:26:45,183 DEBUG [com.qmetry.qaf.automation.util.PropertyUtil] clear system property ignored:json.report.dir
[main] 15:26:45,183 DEBUG [com.qmetry.qaf.automation.util.PropertyUtil] clear system property ignored:awt.toolkit
[main] 15:26:45,183 DEBUG [com.qmetry.qaf.automation.util.PropertyUtil] clear system property ignored:outputDir
[main] 15:26:45,185 INFO  [com.qmetry.qaf.automation.core.ConfigurationManager] Resource dir: D:\QASWorkspace\Perfect0\resources. Found property files to load: 0
[main] 15:26:45,187 DEBUG [com.qmetry.qaf.automation.util.PropertyUtil] clear system property ignored:file.encoding.pkg
[main] 15:26:45,187 DEBUG [com.qmetry.qaf.automation.util.PropertyUtil] clear system property ignored:file.encoding
[main] 15:26:45,187 DEBUG [com.qmetry.qaf.automation.util.PropertyUtil] clear system property ignored:file.separator
[main] 15:26:45,187 DEBUG [com.qmetry.qaf.automation.util.PropertyUtil] clear system property ignored:user.country
[main] 15:26:45,187 DEBUG [com.qmetry.qaf.automation.util.PropertyUtil] clear system property ignored:user.script
[main] 15:26:45,187 DEBUG [com.qmetry.qaf.automation.util.PropertyUtil] clear system property ignored:user.dir
[main] 15:26:45,187 DEBUG [com.qmetry.qaf.automation.util.PropertyUtil] clear system property ignored:user.variant
[main] 15:26:45,187 DEBUG [com.qmetry.qaf.automation.util.PropertyUtil] clear system property ignored:user.home
[main] 15:26:45,187 DEBUG [com.qmetry.qaf.automation.util.PropertyUtil] clear system property ignored:user.timezone
[main] 15:26:45,187 DEBUG [com.qmetry.qaf.automation.util.PropertyUtil] clear system property ignored:user.name
[main] 15:26:45,187 DEBUG [com.qmetry.qaf.automation.util.PropertyUtil] clear system property ignored:user.language
[main] 15:26:45,187 DEBUG [com.qmetry.qaf.automation.util.PropertyUtil] clear system property ignored:selenium.screenshots.relative.path
[main] 15:26:45,187 DEBUG [com.qmetry.qaf.automation.util.PropertyUtil] clear system property ignored:selenium.screenshots.dir
[main] 15:26:45,187 DEBUG [com.qmetry.qaf.automation.util.PropertyUtil] clear system property ignored:os.arch
[main] 15:26:45,188 DEBUG [com.qmetry.qaf.automation.util.PropertyUtil] clear system property ignored:os.name
[main] 15:26:45,188 DEBUG [com.qmetry.qaf.automation.util.PropertyUtil] clear system property ignored:os.version
[main] 15:26:45,188 DEBUG [com.qmetry.qaf.automation.util.PropertyUtil] clear system property ignored:line.separator
[main] 15:26:45,188 DEBUG [com.qmetry.qaf.automation.util.PropertyUtil] clear system property ignored:log4j.configuration
[main] 15:26:45,188 DEBUG [com.qmetry.qaf.automation.util.PropertyUtil] clear system property ignored:json.report.dir
[main] 15:26:45,188 DEBUG [com.qmetry.qaf.automation.util.PropertyUtil] clear system property ignored:awt.toolkit
[main] 15:26:45,188 DEBUG [com.qmetry.qaf.automation.util.PropertyUtil] clear system property ignored:outputDir
[main] 15:26:45,189 INFO  [com.qmetry.qaf.automation.core.ConfigurationManager] Resource dir: D:\QASWorkspace\Perfect0\resources\android. Found property files to load: 1
[main] 15:26:45,192 DEBUG [com.qmetry.qaf.automation.util.PropertyUtil] clear system property ignored:file.encoding.pkg
[main] 15:26:45,192 DEBUG [com.qmetry.qaf.automation.util.PropertyUtil] clear system property ignored:file.encoding
[main] 15:26:45,193 DEBUG [com.qmetry.qaf.automation.util.PropertyUtil] clear system property ignored:file.separator
[main] 15:26:45,193 DEBUG [com.qmetry.qaf.automation.util.PropertyUtil] clear system property ignored:user.country
[main] 15:26:45,193 DEBUG [com.qmetry.qaf.automation.util.PropertyUtil] clear system property ignored:user.script
[main] 15:26:45,193 DEBUG [com.qmetry.qaf.automation.util.PropertyUtil] clear system property ignored:user.dir
[main] 15:26:45,193 DEBUG [com.qmetry.qaf.automation.util.PropertyUtil] clear system property ignored:user.variant
[main] 15:26:45,193 DEBUG [com.qmetry.qaf.automation.util.PropertyUtil] clear system property ignored:user.home
[main] 15:26:45,193 DEBUG [com.qmetry.qaf.automation.util.PropertyUtil] clear system property ignored:user.timezone
[main] 15:26:45,193 DEBUG [com.qmetry.qaf.automation.util.PropertyUtil] clear system property ignored:user.name
[main] 15:26:45,193 DEBUG [com.qmetry.qaf.automation.util.PropertyUtil] clear system property ignored:user.language
[main] 15:26:45,193 DEBUG [com.qmetry.qaf.automation.util.PropertyUtil] clear system property ignored:selenium.screenshots.relative.path
[main] 15:26:45,193 DEBUG [com.qmetry.qaf.automation.util.PropertyUtil] clear system property ignored:selenium.screenshots.dir
[main] 15:26:45,193 DEBUG [com.qmetry.qaf.automation.util.PropertyUtil] clear system property ignored:os.arch
[main] 15:26:45,193 DEBUG [com.qmetry.qaf.automation.util.PropertyUtil] clear system property ignored:os.name
[main] 15:26:45,193 DEBUG [com.qmetry.qaf.automation.util.PropertyUtil] clear system property ignored:os.version
[main] 15:26:45,193 DEBUG [com.qmetry.qaf.automation.util.PropertyUtil] clear system property ignored:line.separator
[main] 15:26:45,193 DEBUG [com.qmetry.qaf.automation.util.PropertyUtil] clear system property ignored:log4j.configuration
[main] 15:26:45,193 DEBUG [com.qmetry.qaf.automation.util.PropertyUtil] clear system property ignored:json.report.dir
[main] 15:26:45,193 DEBUG [com.qmetry.qaf.automation.util.PropertyUtil] clear system property ignored:awt.toolkit
[main] 15:26:45,193 DEBUG [com.qmetry.qaf.automation.util.PropertyUtil] clear system property ignored:outputDir
[main] 15:26:45,194 INFO  [com.qmetry.qaf.automation.core.ConfigurationManager] Resource dir: D:\QASWorkspace\Perfect0\resources\android. Found property files to load: 0
[main] 15:26:45,195 DEBUG [com.qmetry.qaf.automation.util.PropertyUtil] clear system property ignored:file.encoding.pkg
[main] 15:26:45,195 DEBUG [com.qmetry.qaf.automation.util.PropertyUtil] clear system property ignored:file.encoding
[main] 15:26:45,195 DEBUG [com.qmetry.qaf.automation.util.PropertyUtil] clear system property ignored:file.separator
[main] 15:26:45,195 DEBUG [com.qmetry.qaf.automation.util.PropertyUtil] clear system property ignored:user.country
[main] 15:26:45,195 DEBUG [com.qmetry.qaf.automation.util.PropertyUtil] clear system property ignored:user.script
[main] 15:26:45,195 DEBUG [com.qmetry.qaf.automation.util.PropertyUtil] clear system property ignored:user.dir
[main] 15:26:45,195 DEBUG [com.qmetry.qaf.automation.util.PropertyUtil] clear system property ignored:user.variant
[main] 15:26:45,195 DEBUG [com.qmetry.qaf.automation.util.PropertyUtil] clear system property ignored:user.home
[main] 15:26:45,195 DEBUG [com.qmetry.qaf.automation.util.PropertyUtil] clear system property ignored:user.timezone
[main] 15:26:45,195 DEBUG [com.qmetry.qaf.automation.util.PropertyUtil] clear system property ignored:user.name
[main] 15:26:45,196 DEBUG [com.qmetry.qaf.automation.util.PropertyUtil] clear system property ignored:user.language
[main] 15:26:45,196 DEBUG [com.qmetry.qaf.automation.util.PropertyUtil] clear system property ignored:selenium.screenshots.relative.path
[main] 15:26:45,196 DEBUG [com.qmetry.qaf.automation.util.PropertyUtil] clear system property ignored:selenium.screenshots.dir
[main] 15:26:45,196 DEBUG [com.qmetry.qaf.automation.util.PropertyUtil] clear system property ignored:os.arch
[main] 15:26:45,196 DEBUG [com.qmetry.qaf.automation.util.PropertyUtil] clear system property ignored:os.name
[main] 15:26:45,196 DEBUG [com.qmetry.qaf.automation.util.PropertyUtil] clear system property ignored:os.version
[main] 15:26:45,196 DEBUG [com.qmetry.qaf.automation.util.PropertyUtil] clear system property ignored:line.separator
[main] 15:26:45,196 DEBUG [com.qmetry.qaf.automation.util.PropertyUtil] clear system property ignored:log4j.configuration
[main] 15:26:45,196 DEBUG [com.qmetry.qaf.automation.util.PropertyUtil] clear system property ignored:json.report.dir
[main] 15:26:45,196 DEBUG [com.qmetry.qaf.automation.util.PropertyUtil] clear system property ignored:awt.toolkit
[main] 15:26:45,196 DEBUG [com.qmetry.qaf.automation.util.PropertyUtil] clear system property ignored:outputDir
[main] 15:26:45,320 DEBUG [com.qmetry.qaf.automation.testng.pro.QAFInvokedMethodListener2] beforeInvocation: setupSuit
[main] 15:26:45,322 DEBUG [com.qmetry.qaf.automation.testng.pro.QAFInvokedMethodListener2] afterInvocation: setupSuit - com.qmetry.qaf.automation.ui is test:false
[main] 15:26:45,322 DEBUG [com.qmetry.qaf.automation.testng.pro.QAFInvokedMethodListener2] afterInvocation: Done
[main] 15:26:45,326 DEBUG [com.qmetry.qaf.automation.testng.pro.QAFInvokedMethodListener2] beforeInvocation: setupTest
[main] 15:26:45,327 DEBUG [com.qmetry.qaf.automation.testng.pro.QAFInvokedMethodListener2] afterInvocation: setupTest - com.qmetry.qaf.automation.ui is test:false
[main] 15:26:45,327 DEBUG [com.qmetry.qaf.automation.testng.pro.QAFInvokedMethodListener2] afterInvocation: Done
[main] 15:26:45,329 DEBUG [com.qmetry.qaf.automation.testng.pro.QAFMethodInterceptor] Method Order interceptor called
[main] 15:26:45,332 DEBUG [com.qmetry.qaf.automation.testng.pro.QAFInvokedMethodListener2] beforeInvocation: setup
[main] 15:26:45,333 DEBUG [com.qmetry.qaf.automation.testng.pro.QAFInvokedMethodListener2] afterInvocation: setup - com.qmetry.qaf.automation.ui is test:false
[main] 15:26:45,333 DEBUG [com.qmetry.qaf.automation.testng.pro.QAFInvokedMethodListener2] afterInvocation: Done
[main] 15:26:45,339 DEBUG [com.qmetry.qaf.automation.testng.pro.QAFInvokedMethodListener2] beforeInvocation: setupMethod
[main] 15:26:45,339 DEBUG [com.qmetry.qaf.automation.testng.pro.QAFInvokedMethodListener2] afterInvocation: setupMethod - com.qmetry.qaf.automation.ui is test:false
[main] 15:26:45,339 DEBUG [com.qmetry.qaf.automation.testng.pro.QAFInvokedMethodListener2] afterInvocation: Done
[main] 15:26:45,343 DEBUG [com.qmetry.qaf.automation.testng.pro.QAFResultListener] onTestStart: start
[main] 15:26:45,343 DEBUG [com.qmetry.qaf.automation.testng.pro.QAFInvokedMethodListener2] beforeInvocation: SampleTest
[main] 15:26:45,497 INFO  [com.qmetry.qaf.automation.core.QAFTestBase] Initializing Driver...browser_str:perfectoRemoteDriver,base_url:https://,sel_server:https://partners.perfectomobile.com/nexperience/perfectomobile/wd/hub,port:4444
[main] 15:26:45,509 INFO  [com.qmetry.qaf.automation.ui.UiDriverFactory] Driver: perfectoRemoteDriver
[Forwarding newSession on session null to remote] 15:26:45,979 DEBUG [org.apache.http.client.protocol.RequestAddCookies] CookieSpec selected: default
[Forwarding newSession on session null to remote] 15:26:45,986 DEBUG [org.apache.http.client.protocol.RequestAuthCache] Auth cache not set in the context
[Forwarding newSession on session null to remote] 15:26:45,987 DEBUG [org.apache.http.impl.conn.PoolingHttpClientConnectionManager] Connection request: [route: {s}->https://partners.perfectomobile.com:443][total kept alive: 0; route allocated: 0 of 2000; total allocated: 0 of 2000]
[Forwarding newSession on session null to remote] 15:26:45,996 DEBUG [org.apache.http.impl.conn.PoolingHttpClientConnectionManager] Connection leased: [id: 0][route: {s}->https://partners.perfectomobile.com:443][total kept alive: 0; route allocated: 1 of 2000; total allocated: 1 of 2000]
[Forwarding newSession on session null to remote] 15:26:45,997 DEBUG [org.apache.http.impl.execchain.MainClientExec] Opening connection {s}->https://partners.perfectomobile.com:443
[Forwarding newSession on session null to remote] 15:26:45,999 DEBUG [org.apache.http.impl.conn.DefaultHttpClientConnectionOperator] Connecting to partners.perfectomobile.com/198.160.6.129:443
[Forwarding newSession on session null to remote] 15:26:45,999 DEBUG [org.apache.http.conn.ssl.SSLConnectionSocketFactory] Connecting socket to partners.perfectomobile.com/198.160.6.129:443 with timeout 120000
[Forwarding newSession on session null to remote] 15:26:46,243 DEBUG [org.apache.http.conn.ssl.SSLConnectionSocketFactory] Enabled protocols: [TLSv1, TLSv1.1, TLSv1.2]
[Forwarding newSession on session null to remote] 15:26:46,243 DEBUG [org.apache.http.conn.ssl.SSLConnectionSocketFactory] Enabled cipher suites:[TLS_ECDHE_ECDSA_WITH_AES_256_CBC_SHA384, TLS_ECDHE_RSA_WITH_AES_256_CBC_SHA384, TLS_RSA_WITH_AES_256_CBC_SHA256, TLS_ECDH_ECDSA_WITH_AES_256_CBC_SHA384, TLS_ECDH_RSA_WITH_AES_256_CBC_SHA384, TLS_DHE_RSA_WITH_AES_256_CBC_SHA256, TLS_DHE_DSS_WITH_AES_256_CBC_SHA256, TLS_ECDHE_ECDSA_WITH_AES_256_CBC_SHA, TLS_ECDHE_RSA_WITH_AES_256_CBC_SHA, TLS_RSA_WITH_AES_256_CBC_SHA, TLS_ECDH_ECDSA_WITH_AES_256_CBC_SHA, TLS_ECDH_RSA_WITH_AES_256_CBC_SHA, TLS_DHE_RSA_WITH_AES_256_CBC_SHA, TLS_DHE_DSS_WITH_AES_256_CBC_SHA, TLS_ECDHE_ECDSA_WITH_AES_128_CBC_SHA256, TLS_ECDHE_RSA_WITH_AES_128_CBC_SHA256, TLS_RSA_WITH_AES_128_CBC_SHA256, TLS_ECDH_ECDSA_WITH_AES_128_CBC_SHA256, TLS_ECDH_RSA_WITH_AES_128_CBC_SHA256, TLS_DHE_RSA_WITH_AES_128_CBC_SHA256, TLS_DHE_DSS_WITH_AES_128_CBC_SHA256, TLS_ECDHE_ECDSA_WITH_AES_128_CBC_SHA, TLS_ECDHE_RSA_WITH_AES_128_CBC_SHA, TLS_RSA_WITH_AES_128_CBC_SHA, TLS_ECDH_ECDSA_WITH_AES_128_CBC_SHA, TLS_ECDH_RSA_WITH_AES_128_CBC_SHA, TLS_DHE_RSA_WITH_AES_128_CBC_SHA, TLS_DHE_DSS_WITH_AES_128_CBC_SHA, TLS_ECDHE_ECDSA_WITH_AES_256_GCM_SHA384, TLS_ECDHE_ECDSA_WITH_AES_128_GCM_SHA256, TLS_ECDHE_RSA_WITH_AES_256_GCM_SHA384, TLS_RSA_WITH_AES_256_GCM_SHA384, TLS_ECDH_ECDSA_WITH_AES_256_GCM_SHA384, TLS_ECDH_RSA_WITH_AES_256_GCM_SHA384, TLS_DHE_RSA_WITH_AES_256_GCM_SHA384, TLS_DHE_DSS_WITH_AES_256_GCM_SHA384, TLS_ECDHE_RSA_WITH_AES_128_GCM_SHA256, TLS_RSA_WITH_AES_128_GCM_SHA256, TLS_ECDH_ECDSA_WITH_AES_128_GCM_SHA256, TLS_ECDH_RSA_WITH_AES_128_GCM_SHA256, TLS_DHE_RSA_WITH_AES_128_GCM_SHA256, TLS_DHE_DSS_WITH_AES_128_GCM_SHA256, TLS_ECDHE_ECDSA_WITH_3DES_EDE_CBC_SHA, TLS_ECDHE_RSA_WITH_3DES_EDE_CBC_SHA, SSL_RSA_WITH_3DES_EDE_CBC_SHA, TLS_ECDH_ECDSA_WITH_3DES_EDE_CBC_SHA, TLS_ECDH_RSA_WITH_3DES_EDE_CBC_SHA, SSL_DHE_RSA_WITH_3DES_EDE_CBC_SHA, SSL_DHE_DSS_WITH_3DES_EDE_CBC_SHA, TLS_EMPTY_RENEGOTIATION_INFO_SCSV]
[Forwarding newSession on session null to remote] 15:26:46,243 DEBUG [org.apache.http.conn.ssl.SSLConnectionSocketFactory] Starting handshake
[Forwarding newSession on session null to remote] 15:26:46,710 DEBUG [org.apache.http.conn.ssl.SSLConnectionSocketFactory] Secure session established
[Forwarding newSession on session null to remote] 15:26:46,711 DEBUG [org.apache.http.conn.ssl.SSLConnectionSocketFactory]  negotiated protocol: TLSv1.2
[Forwarding newSession on session null to remote] 15:26:46,711 DEBUG [org.apache.http.conn.ssl.SSLConnectionSocketFactory]  negotiated cipher suite: TLS_ECDHE_RSA_WITH_AES_256_GCM_SHA384
[Forwarding newSession on session null to remote] 15:26:46,711 DEBUG [org.apache.http.conn.ssl.SSLConnectionSocketFactory]  peer principal: CN=*.perfectomobile.com, O=Perfecto Mobile, L=Woburn, ST=Massachusetts, C=US
[Forwarding newSession on session null to remote] 15:26:46,711 DEBUG [org.apache.http.conn.ssl.SSLConnectionSocketFactory]  peer alternative names: [*.perfectomobile.com, perfectomobile.com]
[Forwarding newSession on session null to remote] 15:26:46,711 DEBUG [org.apache.http.conn.ssl.SSLConnectionSocketFactory]  issuer principal: CN=DigiCert SHA2 Secure Server CA, O=DigiCert Inc, C=US
[Forwarding newSession on session null to remote] 15:26:46,713 DEBUG [org.apache.http.impl.conn.DefaultHttpClientConnectionOperator] Connection established 10.11.31.94:60198<->198.160.6.129:443
[Forwarding newSession on session null to remote] 15:26:46,713 DEBUG [org.apache.http.impl.conn.DefaultManagedHttpClientConnection] http-outgoing-0: set socket timeout to 10800000
[Forwarding newSession on session null to remote] 15:26:46,713 DEBUG [org.apache.http.impl.execchain.MainClientExec] Executing request POST /nexperience/perfectomobile/wd/hub/session HTTP/1.1
[Forwarding newSession on session null to remote] 15:26:46,713 DEBUG [org.apache.http.impl.execchain.MainClientExec] Target auth state: UNCHALLENGED
[Forwarding newSession on session null to remote] 15:26:46,714 DEBUG [org.apache.http.impl.execchain.MainClientExec] Proxy auth state: UNCHALLENGED
[Forwarding newSession on session null to remote] 15:26:46,715 DEBUG [org.apache.http.headers] http-outgoing-0 >> POST /nexperience/perfectomobile/wd/hub/session HTTP/1.1
[Forwarding newSession on session null to remote] 15:26:46,715 DEBUG [org.apache.http.headers] http-outgoing-0 >> Content-Type: application/json; charset=utf-8
[Forwarding newSession on session null to remote] 15:26:46,715 DEBUG [org.apache.http.headers] http-outgoing-0 >> Content-Length: 523
[Forwarding newSession on session null to remote] 15:26:46,716 DEBUG [org.apache.http.headers] http-outgoing-0 >> Host: partners.perfectomobile.com
[Forwarding newSession on session null to remote] 15:26:46,716 DEBUG [org.apache.http.headers] http-outgoing-0 >> Connection: Keep-Alive
[Forwarding newSession on session null to remote] 15:26:46,716 DEBUG [org.apache.http.headers] http-outgoing-0 >> User-Agent: Apache-HttpClient/4.5.2 (Java/1.8.0_161)
[Forwarding newSession on session null to remote] 15:26:46,716 DEBUG [org.apache.http.headers] http-outgoing-0 >> Accept-Encoding: gzip,deflate
[Forwarding newSession on session null to remote] 15:26:46,716 DEBUG [org.apache.http.wire] http-outgoing-0 >> "POST /nexperience/perfectomobile/wd/hub/session HTTP/1.1[\r][\n]"
[Forwarding newSession on session null to remote] 15:26:46,716 DEBUG [org.apache.http.wire] http-outgoing-0 >> "Content-Type: application/json; charset=utf-8[\r][\n]"
[Forwarding newSession on session null to remote] 15:26:46,716 DEBUG [org.apache.http.wire] http-outgoing-0 >> "Content-Length: 523[\r][\n]"
[Forwarding newSession on session null to remote] 15:26:46,716 DEBUG [org.apache.http.wire] http-outgoing-0 >> "Host: partners.perfectomobile.com[\r][\n]"
[Forwarding newSession on session null to remote] 15:26:46,716 DEBUG [org.apache.http.wire] http-outgoing-0 >> "Connection: Keep-Alive[\r][\n]"
[Forwarding newSession on session null to remote] 15:26:46,716 DEBUG [org.apache.http.wire] http-outgoing-0 >> "User-Agent: Apache-HttpClient/4.5.2 (Java/1.8.0_161)[\r][\n]"
[Forwarding newSession on session null to remote] 15:26:46,716 DEBUG [org.apache.http.wire] http-outgoing-0 >> "Accept-Encoding: gzip,deflate[\r][\n]"
[Forwarding newSession on session null to remote] 15:26:46,716 DEBUG [org.apache.http.wire] http-outgoing-0 >> "[\r][\n]"
[Forwarding newSession on session null to remote] 15:26:46,716 DEBUG [org.apache.http.wire] http-outgoing-0 >> "{"desiredCapabilities":{"appPackage":"com.toi.reader.activities","deviceName":"02157DF2A1B46C22","appPath":"com.toi.reader.activities_2018-04-20.apk","appActivity":"com.toi.reader.activities.NavigationFragmentActivity","password":"Demo123","autoLaunch":true,"driverClass":"io.appium.java_client.Android.AndroidDriver","automationName":"Appium","takesScreenshot":true,"javascriptEnabled":true,"platformName":"iOS","user":"is_user1@infostretch.com","cssSelectorsEnabled":true,"applicationName":"TOI","autoAcceptAlerts":true}}"
[Forwarding newSession on session null to remote] 15:26:47,245 DEBUG [org.apache.http.wire] http-outgoing-0 << "HTTP/1.1 500 Internal Server Error[\r][\n]"
[Forwarding newSession on session null to remote] 15:26:47,245 DEBUG [org.apache.http.wire] http-outgoing-0 << "Server: nginx[\r][\n]"
[Forwarding newSession on session null to remote] 15:26:47,245 DEBUG [org.apache.http.wire] http-outgoing-0 << "Date: Thu, 26 Apr 2018 09:58:05 GMT[\r][\n]"
[Forwarding newSession on session null to remote] 15:26:47,245 DEBUG [org.apache.http.wire] http-outgoing-0 << "Content-Type: application/json;charset=utf-8[\r][\n]"
[Forwarding newSession on session null to remote] 15:26:47,245 DEBUG [org.apache.http.wire] http-outgoing-0 << "Content-Length: 6451[\r][\n]"
[Forwarding newSession on session null to remote] 15:26:47,246 DEBUG [org.apache.http.wire] http-outgoing-0 << "Connection: keep-alive[\r][\n]"
[Forwarding newSession on session null to remote] 15:26:47,246 DEBUG [org.apache.http.wire] http-outgoing-0 << "Expires: Thu, 01 Jan 1970 00:00:00 GMT[\r][\n]"
[Forwarding newSession on session null to remote] 15:26:47,246 DEBUG [org.apache.http.wire] http-outgoing-0 << "Cache-Control: no-cache[\r][\n]"
[Forwarding newSession on session null to remote] 15:26:47,246 DEBUG [org.apache.http.wire] http-outgoing-0 << "Set-Cookie: JSESSIONID=392B595A963C7FAB69CEB73DA78E7E4A; Path=/nexperience; HttpOnly[\r][\n]"
[Forwarding newSession on session null to remote] 15:26:47,246 DEBUG [org.apache.http.wire] http-outgoing-0 << "Set-Cookie: fast_failed=true[\r][\n]"
[Forwarding newSession on session null to remote] 15:26:47,246 DEBUG [org.apache.http.wire] http-outgoing-0 << "X-XSS-Protection: 2; mode=block[\r][\n]"
[Forwarding newSession on session null to remote] 15:26:47,246 DEBUG [org.apache.http.wire] http-outgoing-0 << "[\r][\n]"
[Forwarding newSession on session null to remote] 15:26:47,248 DEBUG [org.apache.http.wire] http-outgoing-0 << "{"sessionId":null,"state":"unknown error","hCode":1383010331,"value":{"localizedMessage":"Failed to execute command handset open: Cannot open device 02157DF2A1B46C22 for user is_user1@infostretch.com, device is in use.","cause":null,"stackTrace":[{"fileName":"MobileEntity.java","nativeMethod":false,"methodName":"processCommonResponse","className":"com.perfectomobile.selenium.MobileEntity","hCode":1414645150,"lineNumber":102,"class":"java.lang.StackTraceElement"},{"fileName":"MobileDevice.java","nativeMethod":false,"methodName":"processResponse","className":"com.perfectomobile.selenium.MobileDevice","hCode":2117691167,"lineNumber":530,"class":"java.lang.StackTraceElement"},{"fileName":"MobileEntity.java","nativeMethod":false,"methodName":"executeCommand","className":"com.perfectomobile.selenium.MobileEntity","hCode":-693423828,"lineNumber":57,"class":"java.lang.StackTraceElement"},{"fileName":"MobileEntity.java","nativeMethod":false,"methodName":"executeCommand","className":"com.perfectomobile.selenium.MobileEntity","hCode":-693423835,"lineNumber":50,"class":"java.lang.StackTraceElement"},{"fileName":"MobileDevice.java","nativeMethod":false,"methodName":"open","className":"com.perfectomobile.selenium.MobileDevice","hCode":1937710427,"lineNumber":84,"class":"java.lang.StackTraceElement"},{"fileName":"PerfectoMobileDriver.java","nativeMethod":false,"methodName":"openDevice","className":"com.perfectomobile.selenium.server.PerfectoMobileDriver","hCode":1004347600,"lineNumber":568,"class":"java.lang.StackTraceElement"},{"fileName":"PerfectoMobileDriver.java","nativeMethod":false,"methodName":"<init>","className":"com.perfectomobile.selenium.server.PerfectoMobileDriver","hCode":844549037,"lineNumber":99,"class":"java.lang.StackTraceElement"},{"fileName":null,"nativeMethod":false,"methodName":"newInstance","className":"sun.reflect.GeneratedConstructorAccessor5935","hCode":-500052663,"lineNumber":-1,"class":"java.lang.StackTraceElement"},{"fileName":"DelegatingConstructorAccessorImpl.java","nativeMethod":false,"methodName":"newInstance","className":"sun.reflect.DelegatingConstructorAccessorImpl","hCode":-2122307259,"lineNumber":45,"class":"java.lang.StackTraceElement"},{"fileName":"Constructor.java","nativeMethod":false,"methodName":"newInstance","className":"java.lang.reflect.Constructor","hCode":-1319859919,"lineNumber":423,"class":"java.lang.StackTraceElement"},{"fileName":"DefaultDriverProvider.java","nativeMethod":false,"methodName":"callConstructor","className":"org.openqa.selenium.remote.server.DefaultDriverProvider","hCode":-2096353663,"lineNumber":108,"class":"java.lang.StackTraceElement"},{"fileName":"DefaultDriverProvider.java","nativeMethod":false,"methodName":"newInstance","className":"org.openqa.selenium.remote.server.DefaultDriverProvider","hCode":1201680340,"lineNumber":102,"class":"java.lang.StackTraceElement"},{"fileName":"DefaultDriverFactory.java","nativeMethod":false,"methodName":"newInstance","className":"org.openqa.selenium.remote.server.DefaultDriverFactory","hCode":-1365021389,"lineNumber":87,"class":"java.lang.StackTraceElement"},{"fileName":"MobileDefaultSession.java","nativeMethod":false,"methodName":"call","className":"org.openqa.selenium.remote.server.MobileDefaultSession$BrowserCreator","hCode":69037518,"lineNumber":209,"class":"java.lang.StackTraceElement"},{"fileName":"MobileDefaultSession.java","nativeMethod":false,"methodName":"<init>","className":"org.openqa.selenium.remote.server.MobileDefaultSession","hCode":1316010470,"lineNumber":109,"class":"java.lang.StackTraceElement"},{"fileName":"MobileDefaultSession.java","nativeMethod":false,"methodName":"createSession","className":"org.openqa.selenium.remote.server.MobileDefaultSession","hCode":1315937122,"lineNumber":97,"class":"java.lang.StackTraceElement"},{"fileName":"MobileDefaultDriverSessions.java","nativeMethod":false,"methodName":"newSession","className":"org.openqa.selenium.remote.server.MobileDefaultDriverSessions","hCode":-2000999550,"lineNumber":83,"class":"java.lang.StackTraceElement"},{"fileName":"NewSession.java","nativeMethod":false,"methodName":"handle","className":"org.openqa.selenium.remote.server.handler.NewSession","hCode":-791713174,"lineNumber":63,"class":"java.lang.StackTraceElement"},{"fileName":"NewSession.java","nativeMethod":false,"methodName":"handle","className":"org.openqa.selenium.remote.server.handler.NewSession","hCode":-791713200,"lineNumber":37,"class":"java.lang.StackTraceElement"},{"fileName":"ResultConfig.java","nativeMethod":false,"methodName":"handle","className":"org.openqa.selenium.remote.server.rest.ResultConfig","hCode":517694327,"lineNumber":112,"class":"java.lang.StackTraceElement"},{"fileName":"JsonHttpCommandHandler.java","nativeMethod":false,"methodName":"handleRequest","className":"org.openqa.selenium.remote.server.JsonHttpCommandHandler","hCode":-924916978,"lineNumber":192,"class":"java.lang.StackTraceElement"},{"fileName":"MobileDriverServlet.java","nativeMethod":false,"methodName":"lambda$handleRequest$0","className":"org.openqa.selenium.remote.server.MobileDriverServlet","hCode":-1447461952,"lineNumber":465,"class":"java.lang.StackTraceElement"},{"fileName":"Executors.java","nativeMethod":false,"methodName":"call","className":"java.util.concurrent.Executors$RunnableAdapter","hCode":-79437994,"lineNumber":511,"class":"java.lang.StackTraceElement"},{"fileName":"FutureTask.java","nativeMethod":false,"methodName":"run","className":"java.util.concurrent.FutureTask","hCode":-820313554,"lineNumber":266,"class":"java.lang.StackTraceElement"},{"fileName":"ThreadPoolExecutor.java","nativeMethod":false,"methodName":"runWorker","className":"java.util.concurrent.ThreadPoolExecutor","hCode":-1285150184,"lineNumber":1142,"class":"java.lang.StackTraceElement"},{"fileName":"ThreadPoolExecutor.java","nativeMethod":false,"methodName":"run","className":"java.util.concurrent.ThreadPoolExecutor$Worker","hCode":-242190645,"lineNumber":617,"class":"java.lang.StackTraceElement"},{"fileName":"Thread.java","nativeMethod":false,"methodName":"run","className":"java.lang.Thread","hCode":-82946317,"lineNumber":748,"class":"java.lang.StackTraceElement"}],"suppressed":[],"message":"Failed to execute command handset open: Cannot open device 02157DF2A1B46C22 for user is_user1@infostretch.com, device is in use.","hCode":555004198,"class":"java.lang.RuntimeException","screen":null},"class":"org.openqa.selenium.remote.Response","status":13}"
[Forwarding newSession on session null to remote] 15:26:47,254 DEBUG [org.apache.http.headers] http-outgoing-0 << HTTP/1.1 500 Internal Server Error
[Forwarding newSession on session null to remote] 15:26:47,255 DEBUG [org.apache.http.headers] http-outgoing-0 << Server: nginx
[Forwarding newSession on session null to remote] 15:26:47,255 DEBUG [org.apache.http.headers] http-outgoing-0 << Date: Thu, 26 Apr 2018 09:58:05 GMT
[Forwarding newSession on session null to remote] 15:26:47,255 DEBUG [org.apache.http.headers] http-outgoing-0 << Content-Type: application/json;charset=utf-8
[Forwarding newSession on session null to remote] 15:26:47,255 DEBUG [org.apache.http.headers] http-outgoing-0 << Content-Length: 6451
[Forwarding newSession on session null to remote] 15:26:47,255 DEBUG [org.apache.http.headers] http-outgoing-0 << Connection: keep-alive
[Forwarding newSession on session null to remote] 15:26:47,255 DEBUG [org.apache.http.headers] http-outgoing-0 << Expires: Thu, 01 Jan 1970 00:00:00 GMT
[Forwarding newSession on session null to remote] 15:26:47,255 DEBUG [org.apache.http.headers] http-outgoing-0 << Cache-Control: no-cache
[Forwarding newSession on session null to remote] 15:26:47,255 DEBUG [org.apache.http.headers] http-outgoing-0 << Set-Cookie: JSESSIONID=392B595A963C7FAB69CEB73DA78E7E4A; Path=/nexperience; HttpOnly
[Forwarding newSession on session null to remote] 15:26:47,255 DEBUG [org.apache.http.headers] http-outgoing-0 << Set-Cookie: fast_failed=true
[Forwarding newSession on session null to remote] 15:26:47,256 DEBUG [org.apache.http.headers] http-outgoing-0 << X-XSS-Protection: 2; mode=block
[Forwarding newSession on session null to remote] 15:26:47,265 DEBUG [org.apache.http.impl.execchain.MainClientExec] Connection can be kept alive indefinitely
[Forwarding newSession on session null to remote] 15:26:47,278 DEBUG [org.apache.http.client.protocol.ResponseProcessCookies] Cookie accepted [JSESSIONID="392B595A963C7FAB69CEB73DA78E7E4A", version:0, domain:partners.perfectomobile.com, path:/nexperience, expiry:null]
[Forwarding newSession on session null to remote] 15:26:47,278 DEBUG [org.apache.http.client.protocol.ResponseProcessCookies] Cookie accepted [fast_failed="true", version:0, domain:partners.perfectomobile.com, path:/nexperience/perfectomobile/wd/hub, expiry:null]
[Forwarding newSession on session null to remote] 15:26:47,282 DEBUG [org.apache.http.impl.conn.PoolingHttpClientConnectionManager] Connection [id: 0][route: {s}->https://partners.perfectomobile.com:443] can be kept alive indefinitely
[Forwarding newSession on session null to remote] 15:26:47,282 DEBUG [org.apache.http.impl.conn.PoolingHttpClientConnectionManager] Connection released: [id: 0][route: {s}->https://partners.perfectomobile.com:443][total kept alive: 1; route allocated: 1 of 2000; total allocated: 1 of 2000]
[main] 15:26:47,328 DEBUG [com.qmetry.qaf.automation.testng.pro.QAFInvokedMethodListener2] afterInvocation: SampleTest - com.qmetry.qaf.automation.step.client is test:true
[main] 15:26:47,328 DEBUG [com.qmetry.qaf.automation.testng.pro.QAFInvokedMethodListener2] afterInvocation: Done
[main] 15:26:47,342 DEBUG [com.qmetry.qaf.automation.testng.report.ReporterUtil] method:  result: skip groups: {description=Sample Test Scenario, groups=[Ljava.lang.String;@e84a8e1, lineNo=3, name=SampleTest, referece=scenarios/suite1.bdd, sign=scenarios.suite1.bdd.SampleTest()[pri:1000, instance:com.qmetry.qaf.automation.step.client.Scenario@3e8]}
[main] 15:26:47,345 DEBUG [com.qmetry.qaf.automation.testng.pro.QAFInvokedMethodListener2] beforeInvocation: afterMethod
[main] 15:26:47,345 DEBUG [com.qmetry.qaf.automation.testng.pro.QAFInvokedMethodListener2] afterInvocation: afterMethod - com.qmetry.qaf.automation.ui is test:false
[main] 15:26:47,345 DEBUG [com.qmetry.qaf.automation.testng.pro.QAFInvokedMethodListener2] afterInvocation: Done
[main] 15:26:47,346 DEBUG [com.qmetry.qaf.automation.testng.pro.QAFInvokedMethodListener2] beforeInvocation: afterClass
[main] 15:26:47,346 DEBUG [com.qmetry.qaf.automation.testng.pro.QAFInvokedMethodListener2] afterInvocation: afterClass - com.qmetry.qaf.automation.ui is test:false
[main] 15:26:47,346 DEBUG [com.qmetry.qaf.automation.testng.pro.QAFInvokedMethodListener2] afterInvocation: Done
[main] 15:26:47,348 DEBUG [com.qmetry.qaf.automation.testng.pro.QAFInvokedMethodListener2] beforeInvocation: afterTest
[main] 15:26:47,348 DEBUG [com.qmetry.qaf.automation.testng.pro.QAFInvokedMethodListener2] afterInvocation: afterTest - com.qmetry.qaf.automation.ui is test:false
[main] 15:26:47,348 DEBUG [com.qmetry.qaf.automation.testng.pro.QAFInvokedMethodListener2] afterInvocation: Done
[main] 15:26:47,376 DEBUG [com.qmetry.qaf.automation.testng.pro.QAFResultListener] onfinish testcntext: start
[main] 15:26:47,391 DEBUG [com.qmetry.qaf.automation.testng.pro.QAFInvokedMethodListener2] beforeInvocation: afterSuit
[main] 15:26:47,392 DEBUG [com.qmetry.qaf.automation.testng.pro.QAFInvokedMethodListener2] afterInvocation: afterSuit - com.qmetry.qaf.automation.ui is test:false
[main] 15:26:47,392 DEBUG [com.qmetry.qaf.automation.testng.pro.QAFInvokedMethodListener2] afterInvocation: Done
[main] 15:26:47,394 DEBUG [com.qmetry.qaf.automation.testng.pro.QAFSuiteListener] onFinish: start
[main] 15:26:47,398 DEBUG [com.qmetry.qaf.automation.testng.pro.QAFSuiteListener] onFinish: done
