[main] 12:24:02,610 DEBUG [com.qmetry.qaf.automation.testng.pro.QAFAnnotationTransformer2] QAFTestNGListener registered!...
[main] 12:24:02,621 DEBUG [com.qmetry.qaf.automation.testng.pro.QAFInvokedMethodListener2] QAFTestNGListener registered!...
[main] 12:24:02,622 DEBUG [com.qmetry.qaf.automation.testng.pro.QAFMethodInterceptor] QAFTestNGListener registered!...
[main] 12:24:02,622 DEBUG [com.qmetry.qaf.automation.testng.pro.QAFResultListener] QAFTestNGListener registered!...
[main] 12:24:02,623 DEBUG [com.qmetry.qaf.automation.testng.pro.QAFSuiteListener] QAFTestNGListener registered!...
[main] 12:24:02,743 INFO  [com.qmetry.qaf.automation.core.ConfigurationManager] ISFW build info: {qaf-Type=core, qaf-Revision=12-RC3, qaf-Version=2.1, qaf-Build-Time=06-Aug-2017 11:49:43}
[main] 12:24:02,752 INFO  [com.qmetry.qaf.automation.core.ConfigurationManager] Resource dir: D:\QASWorkspace\Perfect0\resources. Found property files to load: 5
[main] 12:24:02,768 DEBUG [com.qmetry.qaf.automation.util.PropertyUtil] clear system property ignored:file.encoding.pkg
[main] 12:24:02,768 DEBUG [com.qmetry.qaf.automation.util.PropertyUtil] clear system property ignored:file.encoding
[main] 12:24:02,768 DEBUG [com.qmetry.qaf.automation.util.PropertyUtil] clear system property ignored:file.separator
[main] 12:24:02,768 DEBUG [com.qmetry.qaf.automation.util.PropertyUtil] clear system property ignored:user.country
[main] 12:24:02,768 DEBUG [com.qmetry.qaf.automation.util.PropertyUtil] clear system property ignored:user.script
[main] 12:24:02,768 DEBUG [com.qmetry.qaf.automation.util.PropertyUtil] clear system property ignored:user.dir
[main] 12:24:02,768 DEBUG [com.qmetry.qaf.automation.util.PropertyUtil] clear system property ignored:user.variant
[main] 12:24:02,768 DEBUG [com.qmetry.qaf.automation.util.PropertyUtil] clear system property ignored:user.home
[main] 12:24:02,768 DEBUG [com.qmetry.qaf.automation.util.PropertyUtil] clear system property ignored:user.timezone
[main] 12:24:02,768 DEBUG [com.qmetry.qaf.automation.util.PropertyUtil] clear system property ignored:user.name
[main] 12:24:02,768 DEBUG [com.qmetry.qaf.automation.util.PropertyUtil] clear system property ignored:user.language
[main] 12:24:02,768 DEBUG [com.qmetry.qaf.automation.util.PropertyUtil] clear system property ignored:selenium.screenshots.relative.path
[main] 12:24:02,769 DEBUG [com.qmetry.qaf.automation.util.PropertyUtil] clear system property ignored:selenium.screenshots.dir
[main] 12:24:02,769 DEBUG [com.qmetry.qaf.automation.util.PropertyUtil] clear system property ignored:os.arch
[main] 12:24:02,769 DEBUG [com.qmetry.qaf.automation.util.PropertyUtil] clear system property ignored:os.name
[main] 12:24:02,769 DEBUG [com.qmetry.qaf.automation.util.PropertyUtil] clear system property ignored:os.version
[main] 12:24:02,769 DEBUG [com.qmetry.qaf.automation.util.PropertyUtil] clear system property ignored:line.separator
[main] 12:24:02,769 DEBUG [com.qmetry.qaf.automation.util.PropertyUtil] clear system property ignored:log4j.configuration
[main] 12:24:02,771 DEBUG [com.qmetry.qaf.automation.util.PropertyUtil] clear system property ignored:json.report.dir
[main] 12:24:02,771 DEBUG [com.qmetry.qaf.automation.util.PropertyUtil] clear system property ignored:awt.toolkit
[main] 12:24:02,771 DEBUG [com.qmetry.qaf.automation.util.PropertyUtil] clear system property ignored:outputDir
[main] 12:24:02,773 INFO  [com.qmetry.qaf.automation.core.ConfigurationManager] Resource dir: D:\QASWorkspace\Perfect0\resources. Found property files to load: 0
[main] 12:24:02,775 DEBUG [com.qmetry.qaf.automation.util.PropertyUtil] clear system property ignored:file.encoding.pkg
[main] 12:24:02,775 DEBUG [com.qmetry.qaf.automation.util.PropertyUtil] clear system property ignored:file.encoding
[main] 12:24:02,775 DEBUG [com.qmetry.qaf.automation.util.PropertyUtil] clear system property ignored:file.separator
[main] 12:24:02,775 DEBUG [com.qmetry.qaf.automation.util.PropertyUtil] clear system property ignored:user.country
[main] 12:24:02,775 DEBUG [com.qmetry.qaf.automation.util.PropertyUtil] clear system property ignored:user.script
[main] 12:24:02,775 DEBUG [com.qmetry.qaf.automation.util.PropertyUtil] clear system property ignored:user.dir
[main] 12:24:02,775 DEBUG [com.qmetry.qaf.automation.util.PropertyUtil] clear system property ignored:user.variant
[main] 12:24:02,775 DEBUG [com.qmetry.qaf.automation.util.PropertyUtil] clear system property ignored:user.home
[main] 12:24:02,775 DEBUG [com.qmetry.qaf.automation.util.PropertyUtil] clear system property ignored:user.timezone
[main] 12:24:02,775 DEBUG [com.qmetry.qaf.automation.util.PropertyUtil] clear system property ignored:user.name
[main] 12:24:02,775 DEBUG [com.qmetry.qaf.automation.util.PropertyUtil] clear system property ignored:user.language
[main] 12:24:02,775 DEBUG [com.qmetry.qaf.automation.util.PropertyUtil] clear system property ignored:selenium.screenshots.relative.path
[main] 12:24:02,775 DEBUG [com.qmetry.qaf.automation.util.PropertyUtil] clear system property ignored:selenium.screenshots.dir
[main] 12:24:02,775 DEBUG [com.qmetry.qaf.automation.util.PropertyUtil] clear system property ignored:os.arch
[main] 12:24:02,775 DEBUG [com.qmetry.qaf.automation.util.PropertyUtil] clear system property ignored:os.name
[main] 12:24:02,775 DEBUG [com.qmetry.qaf.automation.util.PropertyUtil] clear system property ignored:os.version
[main] 12:24:02,775 DEBUG [com.qmetry.qaf.automation.util.PropertyUtil] clear system property ignored:line.separator
[main] 12:24:02,776 DEBUG [com.qmetry.qaf.automation.util.PropertyUtil] clear system property ignored:log4j.configuration
[main] 12:24:02,776 DEBUG [com.qmetry.qaf.automation.util.PropertyUtil] clear system property ignored:json.report.dir
[main] 12:24:02,776 DEBUG [com.qmetry.qaf.automation.util.PropertyUtil] clear system property ignored:awt.toolkit
[main] 12:24:02,776 DEBUG [com.qmetry.qaf.automation.util.PropertyUtil] clear system property ignored:outputDir
[main] 12:24:02,776 INFO  [com.qmetry.qaf.automation.core.ConfigurationManager] Resource dir: D:\QASWorkspace\Perfect0\resources\android. Found property files to load: 1
[main] 12:24:02,779 DEBUG [com.qmetry.qaf.automation.util.PropertyUtil] clear system property ignored:file.encoding.pkg
[main] 12:24:02,779 DEBUG [com.qmetry.qaf.automation.util.PropertyUtil] clear system property ignored:file.encoding
[main] 12:24:02,779 DEBUG [com.qmetry.qaf.automation.util.PropertyUtil] clear system property ignored:file.separator
[main] 12:24:02,779 DEBUG [com.qmetry.qaf.automation.util.PropertyUtil] clear system property ignored:user.country
[main] 12:24:02,779 DEBUG [com.qmetry.qaf.automation.util.PropertyUtil] clear system property ignored:user.script
[main] 12:24:02,779 DEBUG [com.qmetry.qaf.automation.util.PropertyUtil] clear system property ignored:user.dir
[main] 12:24:02,780 DEBUG [com.qmetry.qaf.automation.util.PropertyUtil] clear system property ignored:user.variant
[main] 12:24:02,780 DEBUG [com.qmetry.qaf.automation.util.PropertyUtil] clear system property ignored:user.home
[main] 12:24:02,780 DEBUG [com.qmetry.qaf.automation.util.PropertyUtil] clear system property ignored:user.timezone
[main] 12:24:02,780 DEBUG [com.qmetry.qaf.automation.util.PropertyUtil] clear system property ignored:user.name
[main] 12:24:02,780 DEBUG [com.qmetry.qaf.automation.util.PropertyUtil] clear system property ignored:user.language
[main] 12:24:02,780 DEBUG [com.qmetry.qaf.automation.util.PropertyUtil] clear system property ignored:selenium.screenshots.relative.path
[main] 12:24:02,780 DEBUG [com.qmetry.qaf.automation.util.PropertyUtil] clear system property ignored:selenium.screenshots.dir
[main] 12:24:02,780 DEBUG [com.qmetry.qaf.automation.util.PropertyUtil] clear system property ignored:os.arch
[main] 12:24:02,780 DEBUG [com.qmetry.qaf.automation.util.PropertyUtil] clear system property ignored:os.name
[main] 12:24:02,780 DEBUG [com.qmetry.qaf.automation.util.PropertyUtil] clear system property ignored:os.version
[main] 12:24:02,780 DEBUG [com.qmetry.qaf.automation.util.PropertyUtil] clear system property ignored:line.separator
[main] 12:24:02,780 DEBUG [com.qmetry.qaf.automation.util.PropertyUtil] clear system property ignored:log4j.configuration
[main] 12:24:02,780 DEBUG [com.qmetry.qaf.automation.util.PropertyUtil] clear system property ignored:json.report.dir
[main] 12:24:02,780 DEBUG [com.qmetry.qaf.automation.util.PropertyUtil] clear system property ignored:awt.toolkit
[main] 12:24:02,780 DEBUG [com.qmetry.qaf.automation.util.PropertyUtil] clear system property ignored:outputDir
[main] 12:24:02,781 INFO  [com.qmetry.qaf.automation.core.ConfigurationManager] Resource dir: D:\QASWorkspace\Perfect0\resources\android. Found property files to load: 0
[main] 12:24:02,782 DEBUG [com.qmetry.qaf.automation.util.PropertyUtil] clear system property ignored:file.encoding.pkg
[main] 12:24:02,782 DEBUG [com.qmetry.qaf.automation.util.PropertyUtil] clear system property ignored:file.encoding
[main] 12:24:02,782 DEBUG [com.qmetry.qaf.automation.util.PropertyUtil] clear system property ignored:file.separator
[main] 12:24:02,782 DEBUG [com.qmetry.qaf.automation.util.PropertyUtil] clear system property ignored:user.country
[main] 12:24:02,782 DEBUG [com.qmetry.qaf.automation.util.PropertyUtil] clear system property ignored:user.script
[main] 12:24:02,782 DEBUG [com.qmetry.qaf.automation.util.PropertyUtil] clear system property ignored:user.dir
[main] 12:24:02,782 DEBUG [com.qmetry.qaf.automation.util.PropertyUtil] clear system property ignored:user.variant
[main] 12:24:02,782 DEBUG [com.qmetry.qaf.automation.util.PropertyUtil] clear system property ignored:user.home
[main] 12:24:02,782 DEBUG [com.qmetry.qaf.automation.util.PropertyUtil] clear system property ignored:user.timezone
[main] 12:24:02,782 DEBUG [com.qmetry.qaf.automation.util.PropertyUtil] clear system property ignored:user.name
[main] 12:24:02,783 DEBUG [com.qmetry.qaf.automation.util.PropertyUtil] clear system property ignored:user.language
[main] 12:24:02,783 DEBUG [com.qmetry.qaf.automation.util.PropertyUtil] clear system property ignored:selenium.screenshots.relative.path
[main] 12:24:02,783 DEBUG [com.qmetry.qaf.automation.util.PropertyUtil] clear system property ignored:selenium.screenshots.dir
[main] 12:24:02,783 DEBUG [com.qmetry.qaf.automation.util.PropertyUtil] clear system property ignored:os.arch
[main] 12:24:02,783 DEBUG [com.qmetry.qaf.automation.util.PropertyUtil] clear system property ignored:os.name
[main] 12:24:02,783 DEBUG [com.qmetry.qaf.automation.util.PropertyUtil] clear system property ignored:os.version
[main] 12:24:02,783 DEBUG [com.qmetry.qaf.automation.util.PropertyUtil] clear system property ignored:line.separator
[main] 12:24:02,783 DEBUG [com.qmetry.qaf.automation.util.PropertyUtil] clear system property ignored:log4j.configuration
[main] 12:24:02,783 DEBUG [com.qmetry.qaf.automation.util.PropertyUtil] clear system property ignored:json.report.dir
[main] 12:24:02,783 DEBUG [com.qmetry.qaf.automation.util.PropertyUtil] clear system property ignored:awt.toolkit
[main] 12:24:02,783 DEBUG [com.qmetry.qaf.automation.util.PropertyUtil] clear system property ignored:outputDir
[main] 12:24:02,929 DEBUG [com.qmetry.qaf.automation.testng.pro.QAFInvokedMethodListener2] beforeInvocation: setupSuit
[main] 12:24:02,932 DEBUG [com.qmetry.qaf.automation.testng.pro.QAFInvokedMethodListener2] afterInvocation: setupSuit - com.qmetry.qaf.automation.ui is test:false
[main] 12:24:02,932 DEBUG [com.qmetry.qaf.automation.testng.pro.QAFInvokedMethodListener2] afterInvocation: Done
[main] 12:24:02,933 DEBUG [com.qmetry.qaf.automation.testng.pro.QAFInvokedMethodListener2] beforeInvocation: setupTest
[main] 12:24:02,935 DEBUG [com.qmetry.qaf.automation.testng.pro.QAFInvokedMethodListener2] afterInvocation: setupTest - com.qmetry.qaf.automation.ui is test:false
[main] 12:24:02,935 DEBUG [com.qmetry.qaf.automation.testng.pro.QAFInvokedMethodListener2] afterInvocation: Done
[main] 12:24:02,936 DEBUG [com.qmetry.qaf.automation.testng.pro.QAFMethodInterceptor] Method Order interceptor called
[main] 12:24:02,938 DEBUG [com.qmetry.qaf.automation.testng.pro.QAFInvokedMethodListener2] beforeInvocation: setup
[main] 12:24:02,939 DEBUG [com.qmetry.qaf.automation.testng.pro.QAFInvokedMethodListener2] afterInvocation: setup - com.qmetry.qaf.automation.ui is test:false
[main] 12:24:02,939 DEBUG [com.qmetry.qaf.automation.testng.pro.QAFInvokedMethodListener2] afterInvocation: Done
[main] 12:24:02,945 DEBUG [com.qmetry.qaf.automation.testng.pro.QAFInvokedMethodListener2] beforeInvocation: setupMethod
[main] 12:24:02,945 DEBUG [com.qmetry.qaf.automation.testng.pro.QAFInvokedMethodListener2] afterInvocation: setupMethod - com.qmetry.qaf.automation.ui is test:false
[main] 12:24:02,945 DEBUG [com.qmetry.qaf.automation.testng.pro.QAFInvokedMethodListener2] afterInvocation: Done
[main] 12:24:02,949 DEBUG [com.qmetry.qaf.automation.testng.pro.QAFResultListener] onTestStart: start
[main] 12:24:02,949 DEBUG [com.qmetry.qaf.automation.testng.pro.QAFInvokedMethodListener2] beforeInvocation: SampleTest
[main] 12:24:03,087 INFO  [com.qmetry.qaf.automation.core.QAFTestBase] Initializing Driver...browser_str:perfectoDriver,base_url:https://,sel_server:https://partners.perfectomobile.com/nexperience/perfectomobile/wd/hub,port:4444
[main] 12:24:03,102 INFO  [com.qmetry.qaf.automation.ui.UiDriverFactory] Driver: perfectoDriver
[main] 12:24:03,162 DEBUG [com.qmetry.qaf.automation.testng.pro.QAFInvokedMethodListener2] afterInvocation: SampleTest - com.qmetry.qaf.automation.step.client is test:true
[main] 12:24:03,162 DEBUG [com.qmetry.qaf.automation.testng.pro.QAFInvokedMethodListener2] afterInvocation: Done
[main] 12:24:03,174 DEBUG [com.qmetry.qaf.automation.testng.report.ReporterUtil] method:  result: skip groups: {description=Sample Test Scenario, groups=[Ljava.lang.String;@4b0d79fc, lineNo=3, name=SampleTest, referece=scenarios/suite1.bdd, sign=scenarios.suite1.bdd.SampleTest()[pri:1000, instance:com.qmetry.qaf.automation.step.client.Scenario@3e8]}
[main] 12:24:03,179 DEBUG [com.qmetry.qaf.automation.testng.pro.QAFInvokedMethodListener2] beforeInvocation: afterMethod
[main] 12:24:03,180 DEBUG [com.qmetry.qaf.automation.testng.pro.QAFInvokedMethodListener2] afterInvocation: afterMethod - com.qmetry.qaf.automation.ui is test:false
[main] 12:24:03,180 DEBUG [com.qmetry.qaf.automation.testng.pro.QAFInvokedMethodListener2] afterInvocation: Done
[main] 12:24:03,180 DEBUG [com.qmetry.qaf.automation.testng.pro.QAFInvokedMethodListener2] beforeInvocation: afterClass
[main] 12:24:03,180 DEBUG [com.qmetry.qaf.automation.testng.pro.QAFInvokedMethodListener2] afterInvocation: afterClass - com.qmetry.qaf.automation.ui is test:false
[main] 12:24:03,180 DEBUG [com.qmetry.qaf.automation.testng.pro.QAFInvokedMethodListener2] afterInvocation: Done
[main] 12:24:03,181 DEBUG [com.qmetry.qaf.automation.testng.pro.QAFInvokedMethodListener2] beforeInvocation: afterTest
[main] 12:24:03,181 DEBUG [com.qmetry.qaf.automation.testng.pro.QAFInvokedMethodListener2] afterInvocation: afterTest - com.qmetry.qaf.automation.ui is test:false
[main] 12:24:03,181 DEBUG [com.qmetry.qaf.automation.testng.pro.QAFInvokedMethodListener2] afterInvocation: Done
[main] 12:24:03,195 DEBUG [com.qmetry.qaf.automation.testng.pro.QAFResultListener] onfinish testcntext: start
[main] 12:24:03,201 DEBUG [com.qmetry.qaf.automation.testng.pro.QAFInvokedMethodListener2] beforeInvocation: afterSuit
[main] 12:24:03,202 DEBUG [com.qmetry.qaf.automation.testng.pro.QAFInvokedMethodListener2] afterInvocation: afterSuit - com.qmetry.qaf.automation.ui is test:false
[main] 12:24:03,203 DEBUG [com.qmetry.qaf.automation.testng.pro.QAFInvokedMethodListener2] afterInvocation: Done
[main] 12:24:03,205 DEBUG [com.qmetry.qaf.automation.testng.pro.QAFSuiteListener] onFinish: start
[main] 12:24:03,208 DEBUG [com.qmetry.qaf.automation.testng.pro.QAFSuiteListener] onFinish: done
[main] 12:24:13,189 DEBUG [com.qmetry.qaf.automation.testng.pro.QAFAnnotationTransformer2] QAFTestNGListener registered!...
[main] 12:24:13,196 DEBUG [com.qmetry.qaf.automation.testng.pro.QAFInvokedMethodListener2] QAFTestNGListener registered!...
[main] 12:24:13,196 DEBUG [com.qmetry.qaf.automation.testng.pro.QAFMethodInterceptor] QAFTestNGListener registered!...
[main] 12:24:13,197 DEBUG [com.qmetry.qaf.automation.testng.pro.QAFResultListener] QAFTestNGListener registered!...
[main] 12:24:13,197 DEBUG [com.qmetry.qaf.automation.testng.pro.QAFSuiteListener] QAFTestNGListener registered!...
[main] 12:24:13,346 INFO  [com.qmetry.qaf.automation.core.ConfigurationManager] ISFW build info: {qaf-Type=core, qaf-Revision=12-RC3, qaf-Version=2.1, qaf-Build-Time=06-Aug-2017 11:49:43}
[main] 12:24:13,369 INFO  [com.qmetry.qaf.automation.core.ConfigurationManager] Resource dir: D:\QASWorkspace\Perfect0\resources. Found property files to load: 5
[main] 12:24:13,403 DEBUG [com.qmetry.qaf.automation.util.PropertyUtil] clear system property ignored:file.encoding.pkg
[main] 12:24:13,403 DEBUG [com.qmetry.qaf.automation.util.PropertyUtil] clear system property ignored:file.encoding
[main] 12:24:13,403 DEBUG [com.qmetry.qaf.automation.util.PropertyUtil] clear system property ignored:file.separator
[main] 12:24:13,403 DEBUG [com.qmetry.qaf.automation.util.PropertyUtil] clear system property ignored:user.country
[main] 12:24:13,403 DEBUG [com.qmetry.qaf.automation.util.PropertyUtil] clear system property ignored:user.script
[main] 12:24:13,403 DEBUG [com.qmetry.qaf.automation.util.PropertyUtil] clear system property ignored:user.dir
[main] 12:24:13,403 DEBUG [com.qmetry.qaf.automation.util.PropertyUtil] clear system property ignored:user.variant
[main] 12:24:13,403 DEBUG [com.qmetry.qaf.automation.util.PropertyUtil] clear system property ignored:user.home
[main] 12:24:13,404 DEBUG [com.qmetry.qaf.automation.util.PropertyUtil] clear system property ignored:user.timezone
[main] 12:24:13,404 DEBUG [com.qmetry.qaf.automation.util.PropertyUtil] clear system property ignored:user.name
[main] 12:24:13,404 DEBUG [com.qmetry.qaf.automation.util.PropertyUtil] clear system property ignored:user.language
[main] 12:24:13,404 DEBUG [com.qmetry.qaf.automation.util.PropertyUtil] clear system property ignored:selenium.screenshots.relative.path
[main] 12:24:13,404 DEBUG [com.qmetry.qaf.automation.util.PropertyUtil] clear system property ignored:selenium.screenshots.dir
[main] 12:24:13,404 DEBUG [com.qmetry.qaf.automation.util.PropertyUtil] clear system property ignored:os.arch
[main] 12:24:13,404 DEBUG [com.qmetry.qaf.automation.util.PropertyUtil] clear system property ignored:os.name
[main] 12:24:13,404 DEBUG [com.qmetry.qaf.automation.util.PropertyUtil] clear system property ignored:os.version
[main] 12:24:13,404 DEBUG [com.qmetry.qaf.automation.util.PropertyUtil] clear system property ignored:line.separator
[main] 12:24:13,404 DEBUG [com.qmetry.qaf.automation.util.PropertyUtil] clear system property ignored:log4j.configuration
[main] 12:24:13,406 DEBUG [com.qmetry.qaf.automation.util.PropertyUtil] clear system property ignored:json.report.dir
[main] 12:24:13,406 DEBUG [com.qmetry.qaf.automation.util.PropertyUtil] clear system property ignored:awt.toolkit
[main] 12:24:13,406 DEBUG [com.qmetry.qaf.automation.util.PropertyUtil] clear system property ignored:outputDir
[main] 12:24:13,408 INFO  [com.qmetry.qaf.automation.core.ConfigurationManager] Resource dir: D:\QASWorkspace\Perfect0\resources. Found property files to load: 0
[main] 12:24:13,410 DEBUG [com.qmetry.qaf.automation.util.PropertyUtil] clear system property ignored:file.encoding.pkg
[main] 12:24:13,410 DEBUG [com.qmetry.qaf.automation.util.PropertyUtil] clear system property ignored:file.encoding
[main] 12:24:13,410 DEBUG [com.qmetry.qaf.automation.util.PropertyUtil] clear system property ignored:file.separator
[main] 12:24:13,410 DEBUG [com.qmetry.qaf.automation.util.PropertyUtil] clear system property ignored:user.country
[main] 12:24:13,410 DEBUG [com.qmetry.qaf.automation.util.PropertyUtil] clear system property ignored:user.script
[main] 12:24:13,410 DEBUG [com.qmetry.qaf.automation.util.PropertyUtil] clear system property ignored:user.dir
[main] 12:24:13,410 DEBUG [com.qmetry.qaf.automation.util.PropertyUtil] clear system property ignored:user.variant
[main] 12:24:13,410 DEBUG [com.qmetry.qaf.automation.util.PropertyUtil] clear system property ignored:user.home
[main] 12:24:13,410 DEBUG [com.qmetry.qaf.automation.util.PropertyUtil] clear system property ignored:user.timezone
[main] 12:24:13,410 DEBUG [com.qmetry.qaf.automation.util.PropertyUtil] clear system property ignored:user.name
[main] 12:24:13,411 DEBUG [com.qmetry.qaf.automation.util.PropertyUtil] clear system property ignored:user.language
[main] 12:24:13,411 DEBUG [com.qmetry.qaf.automation.util.PropertyUtil] clear system property ignored:selenium.screenshots.relative.path
[main] 12:24:13,411 DEBUG [com.qmetry.qaf.automation.util.PropertyUtil] clear system property ignored:selenium.screenshots.dir
[main] 12:24:13,411 DEBUG [com.qmetry.qaf.automation.util.PropertyUtil] clear system property ignored:os.arch
[main] 12:24:13,411 DEBUG [com.qmetry.qaf.automation.util.PropertyUtil] clear system property ignored:os.name
[main] 12:24:13,411 DEBUG [com.qmetry.qaf.automation.util.PropertyUtil] clear system property ignored:os.version
[main] 12:24:13,411 DEBUG [com.qmetry.qaf.automation.util.PropertyUtil] clear system property ignored:line.separator
[main] 12:24:13,411 DEBUG [com.qmetry.qaf.automation.util.PropertyUtil] clear system property ignored:log4j.configuration
[main] 12:24:13,411 DEBUG [com.qmetry.qaf.automation.util.PropertyUtil] clear system property ignored:json.report.dir
[main] 12:24:13,411 DEBUG [com.qmetry.qaf.automation.util.PropertyUtil] clear system property ignored:awt.toolkit
[main] 12:24:13,411 DEBUG [com.qmetry.qaf.automation.util.PropertyUtil] clear system property ignored:outputDir
[main] 12:24:13,414 INFO  [com.qmetry.qaf.automation.core.ConfigurationManager] Resource dir: D:\QASWorkspace\Perfect0\resources\android. Found property files to load: 1
[main] 12:24:13,419 DEBUG [com.qmetry.qaf.automation.util.PropertyUtil] clear system property ignored:file.encoding.pkg
[main] 12:24:13,419 DEBUG [com.qmetry.qaf.automation.util.PropertyUtil] clear system property ignored:file.encoding
[main] 12:24:13,419 DEBUG [com.qmetry.qaf.automation.util.PropertyUtil] clear system property ignored:file.separator
[main] 12:24:13,419 DEBUG [com.qmetry.qaf.automation.util.PropertyUtil] clear system property ignored:user.country
[main] 12:24:13,419 DEBUG [com.qmetry.qaf.automation.util.PropertyUtil] clear system property ignored:user.script
[main] 12:24:13,419 DEBUG [com.qmetry.qaf.automation.util.PropertyUtil] clear system property ignored:user.dir
[main] 12:24:13,419 DEBUG [com.qmetry.qaf.automation.util.PropertyUtil] clear system property ignored:user.variant
[main] 12:24:13,419 DEBUG [com.qmetry.qaf.automation.util.PropertyUtil] clear system property ignored:user.home
[main] 12:24:13,419 DEBUG [com.qmetry.qaf.automation.util.PropertyUtil] clear system property ignored:user.timezone
[main] 12:24:13,419 DEBUG [com.qmetry.qaf.automation.util.PropertyUtil] clear system property ignored:user.name
[main] 12:24:13,419 DEBUG [com.qmetry.qaf.automation.util.PropertyUtil] clear system property ignored:user.language
[main] 12:24:13,419 DEBUG [com.qmetry.qaf.automation.util.PropertyUtil] clear system property ignored:selenium.screenshots.relative.path
[main] 12:24:13,419 DEBUG [com.qmetry.qaf.automation.util.PropertyUtil] clear system property ignored:selenium.screenshots.dir
[main] 12:24:13,419 DEBUG [com.qmetry.qaf.automation.util.PropertyUtil] clear system property ignored:os.arch
[main] 12:24:13,419 DEBUG [com.qmetry.qaf.automation.util.PropertyUtil] clear system property ignored:os.name
[main] 12:24:13,420 DEBUG [com.qmetry.qaf.automation.util.PropertyUtil] clear system property ignored:os.version
[main] 12:24:13,420 DEBUG [com.qmetry.qaf.automation.util.PropertyUtil] clear system property ignored:line.separator
[main] 12:24:13,420 DEBUG [com.qmetry.qaf.automation.util.PropertyUtil] clear system property ignored:log4j.configuration
[main] 12:24:13,420 DEBUG [com.qmetry.qaf.automation.util.PropertyUtil] clear system property ignored:json.report.dir
[main] 12:24:13,420 DEBUG [com.qmetry.qaf.automation.util.PropertyUtil] clear system property ignored:awt.toolkit
[main] 12:24:13,420 DEBUG [com.qmetry.qaf.automation.util.PropertyUtil] clear system property ignored:outputDir
[main] 12:24:13,421 INFO  [com.qmetry.qaf.automation.core.ConfigurationManager] Resource dir: D:\QASWorkspace\Perfect0\resources\android. Found property files to load: 0
[main] 12:24:13,421 DEBUG [com.qmetry.qaf.automation.util.PropertyUtil] clear system property ignored:file.encoding.pkg
[main] 12:24:13,421 DEBUG [com.qmetry.qaf.automation.util.PropertyUtil] clear system property ignored:file.encoding
[main] 12:24:13,421 DEBUG [com.qmetry.qaf.automation.util.PropertyUtil] clear system property ignored:file.separator
[main] 12:24:13,421 DEBUG [com.qmetry.qaf.automation.util.PropertyUtil] clear system property ignored:user.country
[main] 12:24:13,422 DEBUG [com.qmetry.qaf.automation.util.PropertyUtil] clear system property ignored:user.script
[main] 12:24:13,422 DEBUG [com.qmetry.qaf.automation.util.PropertyUtil] clear system property ignored:user.dir
[main] 12:24:13,422 DEBUG [com.qmetry.qaf.automation.util.PropertyUtil] clear system property ignored:user.variant
[main] 12:24:13,422 DEBUG [com.qmetry.qaf.automation.util.PropertyUtil] clear system property ignored:user.home
[main] 12:24:13,422 DEBUG [com.qmetry.qaf.automation.util.PropertyUtil] clear system property ignored:user.timezone
[main] 12:24:13,422 DEBUG [com.qmetry.qaf.automation.util.PropertyUtil] clear system property ignored:user.name
[main] 12:24:13,422 DEBUG [com.qmetry.qaf.automation.util.PropertyUtil] clear system property ignored:user.language
[main] 12:24:13,422 DEBUG [com.qmetry.qaf.automation.util.PropertyUtil] clear system property ignored:selenium.screenshots.relative.path
[main] 12:24:13,422 DEBUG [com.qmetry.qaf.automation.util.PropertyUtil] clear system property ignored:selenium.screenshots.dir
[main] 12:24:13,422 DEBUG [com.qmetry.qaf.automation.util.PropertyUtil] clear system property ignored:os.arch
[main] 12:24:13,422 DEBUG [com.qmetry.qaf.automation.util.PropertyUtil] clear system property ignored:os.name
[main] 12:24:13,422 DEBUG [com.qmetry.qaf.automation.util.PropertyUtil] clear system property ignored:os.version
[main] 12:24:13,422 DEBUG [com.qmetry.qaf.automation.util.PropertyUtil] clear system property ignored:line.separator
[main] 12:24:13,422 DEBUG [com.qmetry.qaf.automation.util.PropertyUtil] clear system property ignored:log4j.configuration
[main] 12:24:13,422 DEBUG [com.qmetry.qaf.automation.util.PropertyUtil] clear system property ignored:json.report.dir
[main] 12:24:13,422 DEBUG [com.qmetry.qaf.automation.util.PropertyUtil] clear system property ignored:awt.toolkit
[main] 12:24:13,422 DEBUG [com.qmetry.qaf.automation.util.PropertyUtil] clear system property ignored:outputDir
[main] 12:24:13,567 DEBUG [com.qmetry.qaf.automation.testng.pro.QAFInvokedMethodListener2] beforeInvocation: setupSuit
[main] 12:24:13,569 DEBUG [com.qmetry.qaf.automation.testng.pro.QAFInvokedMethodListener2] afterInvocation: setupSuit - com.qmetry.qaf.automation.ui is test:false
[main] 12:24:13,569 DEBUG [com.qmetry.qaf.automation.testng.pro.QAFInvokedMethodListener2] afterInvocation: Done
[main] 12:24:13,571 DEBUG [com.qmetry.qaf.automation.testng.pro.QAFInvokedMethodListener2] beforeInvocation: setupTest
[main] 12:24:13,572 DEBUG [com.qmetry.qaf.automation.testng.pro.QAFInvokedMethodListener2] afterInvocation: setupTest - com.qmetry.qaf.automation.ui is test:false
[main] 12:24:13,573 DEBUG [com.qmetry.qaf.automation.testng.pro.QAFInvokedMethodListener2] afterInvocation: Done
[main] 12:24:13,573 DEBUG [com.qmetry.qaf.automation.testng.pro.QAFMethodInterceptor] Method Order interceptor called
[main] 12:24:13,576 DEBUG [com.qmetry.qaf.automation.testng.pro.QAFInvokedMethodListener2] beforeInvocation: setup
[main] 12:24:13,576 DEBUG [com.qmetry.qaf.automation.testng.pro.QAFInvokedMethodListener2] afterInvocation: setup - com.qmetry.qaf.automation.ui is test:false
[main] 12:24:13,576 DEBUG [com.qmetry.qaf.automation.testng.pro.QAFInvokedMethodListener2] afterInvocation: Done
[main] 12:24:13,582 DEBUG [com.qmetry.qaf.automation.testng.pro.QAFInvokedMethodListener2] beforeInvocation: setupMethod
[main] 12:24:13,583 DEBUG [com.qmetry.qaf.automation.testng.pro.QAFInvokedMethodListener2] afterInvocation: setupMethod - com.qmetry.qaf.automation.ui is test:false
[main] 12:24:13,583 DEBUG [com.qmetry.qaf.automation.testng.pro.QAFInvokedMethodListener2] afterInvocation: Done
[main] 12:24:13,586 DEBUG [com.qmetry.qaf.automation.testng.pro.QAFResultListener] onTestStart: start
[main] 12:24:13,586 DEBUG [com.qmetry.qaf.automation.testng.pro.QAFInvokedMethodListener2] beforeInvocation: SampleTest
[main] 12:24:13,766 INFO  [com.qmetry.qaf.automation.core.QAFTestBase] Initializing Driver...browser_str:perfectoDriver,base_url:https://,sel_server:https://partners.perfectomobile.com/nexperience/perfectomobile/wd/hub,port:4444
[main] 12:24:13,802 INFO  [com.qmetry.qaf.automation.ui.UiDriverFactory] Driver: perfectoDriver
[main] 12:24:13,864 DEBUG [com.qmetry.qaf.automation.testng.pro.QAFInvokedMethodListener2] afterInvocation: SampleTest - com.qmetry.qaf.automation.step.client is test:true
[main] 12:24:13,864 DEBUG [com.qmetry.qaf.automation.testng.pro.QAFInvokedMethodListener2] afterInvocation: Done
[main] 12:24:13,879 DEBUG [com.qmetry.qaf.automation.testng.report.ReporterUtil] method:  result: skip groups: {description=Sample Test Scenario, groups=[Ljava.lang.String;@d9345cd, lineNo=3, name=SampleTest, referece=scenarios/suite1.bdd, resultFileName=SampleTestXQWSfXmRDQ, sign=scenarios.suite1.bdd.SampleTest()[pri:1000, instance:com.qmetry.qaf.automation.step.client.Scenario@3e8]}
[main] 12:24:13,881 DEBUG [com.qmetry.qaf.automation.testng.pro.QAFInvokedMethodListener2] beforeInvocation: afterMethod
[main] 12:24:13,882 DEBUG [com.qmetry.qaf.automation.testng.pro.QAFInvokedMethodListener2] afterInvocation: afterMethod - com.qmetry.qaf.automation.ui is test:false
[main] 12:24:13,882 DEBUG [com.qmetry.qaf.automation.testng.pro.QAFInvokedMethodListener2] afterInvocation: Done
[main] 12:24:13,882 DEBUG [com.qmetry.qaf.automation.testng.pro.QAFInvokedMethodListener2] beforeInvocation: afterClass
[main] 12:24:13,883 DEBUG [com.qmetry.qaf.automation.testng.pro.QAFInvokedMethodListener2] afterInvocation: afterClass - com.qmetry.qaf.automation.ui is test:false
[main] 12:24:13,883 DEBUG [com.qmetry.qaf.automation.testng.pro.QAFInvokedMethodListener2] afterInvocation: Done
[main] 12:24:13,884 DEBUG [com.qmetry.qaf.automation.testng.pro.QAFInvokedMethodListener2] beforeInvocation: afterTest
[main] 12:24:13,885 DEBUG [com.qmetry.qaf.automation.testng.pro.QAFInvokedMethodListener2] afterInvocation: afterTest - com.qmetry.qaf.automation.ui is test:false
[main] 12:24:13,885 DEBUG [com.qmetry.qaf.automation.testng.pro.QAFInvokedMethodListener2] afterInvocation: Done
[main] 12:24:13,901 DEBUG [com.qmetry.qaf.automation.testng.pro.QAFResultListener] onfinish testcntext: start
[main] 12:24:13,908 DEBUG [com.qmetry.qaf.automation.testng.pro.QAFInvokedMethodListener2] beforeInvocation: afterSuit
[main] 12:24:13,908 DEBUG [com.qmetry.qaf.automation.testng.pro.QAFInvokedMethodListener2] afterInvocation: afterSuit - com.qmetry.qaf.automation.ui is test:false
[main] 12:24:13,909 DEBUG [com.qmetry.qaf.automation.testng.pro.QAFInvokedMethodListener2] afterInvocation: Done
[main] 12:24:13,911 DEBUG [com.qmetry.qaf.automation.testng.pro.QAFSuiteListener] onFinish: start
[main] 12:24:13,913 DEBUG [com.qmetry.qaf.automation.testng.pro.QAFSuiteListener] onFinish: done
